[
  {
    "xtz_pool": "11640618272",
    "token_pool": "109106241",
    "decimals": 8,
    "token_in": "10000000",
    "xtz_out": "974644170",
    "conversion": "9746.44170000",
    "slippage": 0.0865
  },
  {
    "xtz_pool": "11640618272",
    "token_pool": "109106241",
    "decimals": 8,
    "token_in": "10400000",
    "xtz_out": "1010246506",
    "conversion": "9713.90871154",
    "slippage": 0.0895
  },
  {
    "xtz_pool": "546058748",
    "token_pool": "915999663",
    "decimals": 6,
    "token_in": "12000000",
    "xtz_out": "7040196",
    "conversion": "0.58668300",
    "slippage": 0.0159
  },
  {
    "xtz_pool": "546058748",
    "token_pool": "915999663",
    "decimals": 6,
    "token_in": "456000",
    "xtz_out": "270887",
    "conversion": "0.59405044",
    "slippage": 0.0035
  }
]
