[
  {
    "xtz_pool": "20000000",
    "token_pool": "1000",
    "token_in": "1000",
    "xtz_out": "9984977"
  },
  {
    "xtz_pool": "20000000",
    "token_pool": "1000",
    "token_in": "100",
    "xtz_out": "1813221"
  },  
  {
    "xtz_pool": "20000000",
    "token_pool": "1000",
    "token_in": "10",
    "xtz_out": "197431"
  },
  {
    "xtz_pool": "20000000",
    "token_pool": "1000",
    "token_in": "1",
    "xtz_out": "19920"
  },
  {
    "xtz_pool": "20000000",
    "token_pool": "1000",
    "token_in": "240",
    "xtz_out": "3861597"
  },
  {
    "xtz_pool": "20000000",
    "token_pool": "1000",
    "token_in": "116",
    "xtz_out": "2073262"
  },
  {
    "xtz_pool": "20000000",
    "token_pool": "1000",
    "token_in": "923",
    "xtz_out": "9584586"
  },
  {
    "xtz_pool": "20000000",
    "token_pool": "1000",
    "token_in": "923",
    "xtz_out": "9584586"
  },
  {
    "xtz_pool": "19500000",
    "token_pool": "919",
    "token_in": "100",
    "xtz_out": "1908461"
  },
  {
    "xtz_pool": "17591539",
    "token_pool": "1019",
    "token_in": "81",
    "xtz_out": "1291776"
  }  
]
